<?xml version="1.0" encoding="UTF-8" standalone="no"?>
<svg width="20px" height="20px" viewBox="0 0 20 20" version="1.1" xmlns="http://www.w3.org/2000/svg" xmlns:xlink="http://www.w3.org/1999/xlink" xmlns:sketch="http://www.bohemiancoding.com/sketch/ns">
    <!-- Generator: Sketch 3.4.2 (15857) - http://www.bohemiancoding.com/sketch -->
    <title>Oval 6</title>
    <desc>Created with Sketch.</desc>
    <defs></defs>
    <g id="Page-1" stroke="none" stroke-width="1" fill="none" fill-rule="evenodd" sketch:type="MSPage">
        <g id="preSpec" sketch:type="MSArtboardGroup" transform="translate(-896.000000, -962.000000)" stroke-width="3" stroke="#8C8C8C" fill="#474C57">
            <g id="steps" sketch:type="MSLayerGroup" transform="translate(356.000000, 962.000000)">
                <g id="stepOptions" sketch:type="MSShapeGroup">
                    <g id="breadcrumb">
                        <g id="stepGenerate" transform="translate(491.000000, 2.000000)">
                            <circle id="Oval-6" cx="59" cy="8" r="8"></circle>
                        </g>
                    </g>
                </g>
            </g>
        </g>
    </g>
</svg>